{
  "formatVersion": 1,
  "database": {
    "version": 1,
    "identityHash": "bb0543395725f0c99d6d59d8827fc33d",
    "entities": [
      {
        "tableName": "user_location",
        "createSql": "CREATE TABLE IF NOT EXISTS `${TABLE_NAME}` (`time` INTEGER NOT NULL, `latitude` REAL NOT NULL, `longitude` REAL NOT NULL, `provider` TEXT NOT NULL, `accuracy` REAL NOT NULL, `bearing` REAL NOT NULL, `hasBearingMask` INTEGER NOT NULL, PRIMARY KEY(`time`))",
        "fields": [
          {
            "fieldPath": "time",
            "columnName": "time",
            "affinity": "INTEGER",
            "notNull": true
          },
          {
            "fieldPath": "latitude",
            "columnName": "latitude",
            "affinity": "REAL",
            "notNull": true
          },
          {
            "fieldPath": "longitude",
            "columnName": "longitude",
            "affinity": "REAL",
            "notNull": true
          },
          {
            "fieldPath": "provider",
            "columnName": "provider",
            "affinity": "TEXT",
            "notNull": true
          },
          {
            "fieldPath": "accuracy",
            "columnName": "accuracy",
            "affinity": "REAL",
            "notNull": true
          },
          {
            "fieldPath": "bearing",
            "columnName": "bearing",
            "affinity": "REAL",
            "notNull": true
          },
          {
            "fieldPath": "hasBearingMask",
            "columnName": "hasBearingMask",
            "affinity": "INTEGER",
            "notNull": true
          }
        ],
        "primaryKey": {
          "columnNames": [
            "time"
          ],
          "autoGenerate": false
        },
        "indices": [],
        "foreignKeys": []
      },
      {
        "tableName": "markers",
        "createSql": "CREATE TABLE IF NOT EXISTS `${TABLE_NAME}` (`id` INTEGER NOT NULL, `name` TEXT NOT NULL, `latitude` REAL NOT NULL, `longitude` REAL NOT NULL, `img` BLOB, `description` TEXT NOT NULL DEFAULT 'нет информации', `startWork` INTEGER, `endWork` INTEGER, `rating` REAL DEFAULT 0.0, `adress` TEXT NOT NULL, `price` INTEGER NOT NULL, `type` INTEGER NOT NULL, PRIMARY KEY(`id`))",
        "fields": [
          {
            "fieldPath": "id",
            "columnName": "id",
            "affinity": "INTEGER",
            "notNull": true
          },
          {
            "fieldPath": "name",
            "columnName": "name",
            "affinity": "TEXT",
            "notNull": true
          },
          {
            "fieldPath": "latitude",
            "columnName": "latitude",
            "affinity": "REAL",
            "notNull": true
          },
          {
            "fieldPath": "longitude",
            "columnName": "longitude",
            "affinity": "REAL",
            "notNull": true
          },
          {
            "fieldPath": "img",
            "columnName": "img",
            "affinity": "BLOB",
            "notNull": false
          },
          {
            "fieldPath": "description",
            "columnName": "description",
            "affinity": "TEXT",
            "notNull": true,
            "defaultValue": "'нет информации'"
          },
          {
            "fieldPath": "startWork",
            "columnName": "startWork",
            "affinity": "INTEGER",
            "notNull": false
          },
          {
            "fieldPath": "endWork",
            "columnName": "endWork",
            "affinity": "INTEGER",
            "notNull": false
          },
          {
            "fieldPath": "rating",
            "columnName": "rating",
            "affinity": "REAL",
            "notNull": false,
            "defaultValue": "0.0"
          },
          {
            "fieldPath": "adress",
            "columnName": "adress",
            "affinity": "TEXT",
            "notNull": true
          },
          {
            "fieldPath": "price",
            "columnName": "price",
            "affinity": "INTEGER",
            "notNull": true
          },
          {
            "fieldPath": "type",
            "columnName": "type",
            "affinity": "INTEGER",
            "notNull": true
          }
        ],
        "primaryKey": {
          "columnNames": [
            "id"
          ],
          "autoGenerate": false
        },
        "indices": [],
        "foreignKeys": []
      },
      {
        "tableName": "filters",
        "createSql": "CREATE TABLE IF NOT EXISTS `${TABLE_NAME}` (`id` INTEGER NOT NULL, `typeSort` INTEGER NOT NULL, `rating` INTEGER NOT NULL, `typeMarker` INTEGER NOT NULL, `price` INTEGER NOT NULL, `open` INTEGER NOT NULL, PRIMARY KEY(`id`))",
        "fields": [
          {
            "fieldPath": "id",
            "columnName": "id",
            "affinity": "INTEGER",
            "notNull": true
          },
          {
            "fieldPath": "typeSort",
            "columnName": "typeSort",
            "affinity": "INTEGER",
            "notNull": true
          },
          {
            "fieldPath": "rating",
            "columnName": "rating",
            "affinity": "INTEGER",
            "notNull": true
          },
          {
            "fieldPath": "typeMarker",
            "columnName": "typeMarker",
            "affinity": "INTEGER",
            "notNull": true
          },
          {
            "fieldPath": "price",
            "columnName": "price",
            "affinity": "INTEGER",
            "notNull": true
          },
          {
            "fieldPath": "open",
            "columnName": "open",
            "affinity": "INTEGER",
            "notNull": true
          }
        ],
        "primaryKey": {
          "columnNames": [
            "id"
          ],
          "autoGenerate": false
        },
        "indices": [],
        "foreignKeys": []
      }
    ],
    "views": [],
    "setupQueries": [
      "CREATE TABLE IF NOT EXISTS room_master_table (id INTEGER PRIMARY KEY,identity_hash TEXT)",
      "INSERT OR REPLACE INTO room_master_table (id,identity_hash) VALUES(42, 'bb0543395725f0c99d6d59d8827fc33d')"
    ]
  }
}